Introdução a Métodos Computacionais para Ciência Sociais
…
            # consertar o enconding
            mutate(city = str_sub(city,5),
                   city = str_replace(city, pattern="- ", ""), 
                   city =  str_trim(city),
                   city_key = stringi::stri_trans_general(city, "Latin-ASCII"), 
                   city_key= str_replace_all(city_key, " ", ""), 
                   city_key=str_to_lower(city_key)) 

tabela_limpa
```

```
# A tibble: 122 x 3
   city                    uf_name            city_key            
   <chr>                   <chr>              <chr>               
 1 Aceguá                  Rio Grande do Sul  acegua              
 2 Acrelândia              Acre               acrelandia          
 3 Alecrim                 Rio Grande do Sul  alecrim             
 4 Almeirim                Pará               almeirim            
 5 Alta Floresta d'Oeste   Rondônia           altaflorestad'oeste 
 6 Alto Alegre             Roraima            altoalegre          
 7 Alto Alegre dos Parecis Rondônia           altoalegredosparecis
 8 Amajari                 Roraima            amajari             
 9 Antônio João            Mato Grosso do Sul antoniojoao         
10 Aral Moreira            Mato Grosso do Sul aralmoreira         
# … with 112 more rows
```
…
