Introdução a Métodos Computacionais para Ciência Sociais
…
---
## Limpando Jsons

```r
# Limpando Jsons
output <- fromJSON(json_fogo_cruzado) %>%
              tibble::as_tibble()
output
```

```
# A tibble: 36 x 9
   CidadeId EstadoId Cidade             CodigoIBGE Gentilico      Populacao  Area DensidadeDemograf… PIBPrecoCorrente
      <int>    <int> <chr>                   <int> <chr>              <int> <int> <chr>              <lgl>           
 1     3253       17 Goiana                2606200 "goianense"        75644 44581 150.70             NA              
 2     3185       17 Abreu e Lima          2600054 "abreu-limens…     94429 12619 748.30             NA              
 3     3196       17 Araçoiaba             2601052 "araçoiabense"     18156  9638 188.40             NA              
 4     3215       17 Cabo de Santo Ago…    2602902 "cabense"         185025 44874 412.30             NA              
 5     3221       17 Camaragibe            2603454 "camaragibens…    144466  5126 2.82               NA              
 6     3259       17 Igarassu              2606804 "igarassuano "    102021 30556 333.90             NA              
 7     3261       17 Ilha de Itamaracá     2607604 "itamaracaens…     21884  6668 328.20             NA              
 8     3264       17 Ipojuca               2607208 "ipojuquense"      80637 52711 153.00             NA              
 9     3270       17 Itapissuma            2607752 "itapissumens…     23769  7424 320.20             NA              
10     3272       17 Jaboatão dos Guar…    2607901 "jaboatãoense"    644620 25869 2.49               NA              
# … with 26 more rows
```
…
```r
# GET
response <- GET(api,
              add_headers('Authorization' = paste("Bearer", token, sep = " ")))

output <- jsonlite::fromJSON(httr::content(response, as="text", encoding = "UTF-8")) %>%
    tibble::as_tibble()

output
```

```
# A tibble: 3,334 x 67
   id_ocorrencia local_ocorrencia  latitude_ocorre… longitude_ocorr… data_ocorrencia hora_ocorrencia presen_agen_seg…
           <int> <chr>                        <dbl>            <dbl> <chr>           <chr>                      <int>
 1         26653 Parque Sao Jose,…            -22.7            -43.3 2019-04-22 19:… 19:11:00                       0
 2         24842 Malvinas, Vila K…            -22.9            -43.5 2019-02-26 17:… 17:07:00                       0
 3         23155 R. Carbonita - B…            -22.8            -43.3 2019-01-01 00:… 0:04:00                        0
 4         23157 Pavão-Pavãozinho…            -23.0            -43.2 2019-01-01 03:… 3:00:00                        0
 5         23158 R. Miguel Cervan…            -22.9            -43.3 2019-01-01 06:… 6:09:00                        0
 6         23159 Senador Camará, …            -22.9            -43.5 2019-01-01 00:… 0:02:00                        0
 7         23162 R. Mario Behring…            -22.7            -43.3 2019-01-01 12:… 12:00:00                       0
 8         23163 R. Miguel Cervan…            -22.9            -43.3 2019-01-01 10:… 10:00:00                       1
 9         23169 Copacabana - Cop…            -23.0            -43.2 2019-01-01 02:… 2:00:00                        0
10         23170 Mangueirinha, Pe…            -22.8            -43.3 2019-01-01 19:… 19:33:00                       0
# … with 3,324 more rows, and 60 more variables: qtd_morto_civil_ocorrencia <int>,
#   qtd_morto_agen_segur_ocorrencia <int>, qtd_ferido_civil_ocorrencia <int>,
#   qtd_ferido_agen_segur_ocorrencia <int>, estado_id <int>, cidade_id <int>, nome_cidade <chr>,
#   cod_ibge_cidade <int>, gentilico_cidade <chr>, populacao_cidade <int>, area_cidade <int>,
#   densidade_demo_cidade <chr>, nome_estado <chr>, uf_estado <chr>, cod_ibge_estado <int>,
#   homem_qtd_mortos_oc <int>, homem_qtd_feridos_oc <int>, mulher_qtd_mortos_oc <int>, mulher_qtd_feridos_oc <int>,
#   chacina_oc <int>, chacina_qtd_mortos_oc <int>, chacina_unidades_policiais_oc <chr>,
#   ag_seguranca_vitima_oc <int>, ag_seguranca_mortos_status_oc <chr>, ag_seguranca_feridos_status_oc <chr>,
#   bala_perdida_oc <int>, bala_perdida_qtd_mortos_oc <int>, bala_perdida_qtd_feridos_oc <int>,
…
