Introdução a Métodos Computacionais para Ciência Sociais
…
- Um condições lógica (is.numeric, is.character, is.na)

- função alterando quando a condições lógica for TRUE. 

---
## select_if

```r
d %>%
  select_if(is.numeric)
```

```
## # A tibble: 51,768 x 10
##    ANO_ELEICAO NUM_TURNO CODIGO_CARGO NUMERO_CANDIDATO CODIGO_MACRO CODIGO_MESO CODIGO_MICRO
##          <int>     <int>        <int>            <int>        <int>       <int>        <int>
##  1        2018         1            6               10            3           5           13
##  2        2018         1            6             1000            3           5           13
##  3        2018         1            6             1001            3           5           13
##  4        2018         1            6             1002            3           5           13
##  5        2018         1            6             1003            3           5           13
##  6        2018         1            6             1004            3           5           13
##  7        2018         1            6             1005            3           5           13
##  8        2018         1            6             1007            3           5           13
##  9        2018         1            6             1009            3           5           13
## 10        2018         1            6             1010            3           5           13
## # … with 51,758 more rows, and 3 more variables: COD_MUN_TSE <int>, COD_MUN_IBGE <int>,
## #   QTDE_VOTOS <int>
```

---
## mutate_if

Altera e salva novas variáveis de acordo com uma condição.

```r
d %>% 
  mutate_if(is.character, str_to_title) 
```

```
## # A tibble: 51,768 x 19
##    ANO_ELEICAO SIGLA_UE NUM_TURNO DESCRICAO_ELEIC… CODIGO_CARGO DESCRICAO_CARGO
##          <int> <chr>        <int> <chr>                   <int> <chr>          
##  1        2018 Rj               1 Eleições Gerais…            6 Deputado Feder…
##  2        2018 Rj               1 Eleições Gerais…            6 Deputado Feder…
##  3        2018 Rj               1 Eleições Gerais…            6 Deputado Feder…
##  4        2018 Rj               1 Eleições Gerais…            6 Deputado Feder…
##  5        2018 Rj               1 Eleições Gerais…            6 Deputado Feder…
##  6        2018 Rj               1 Eleições Gerais…            6 Deputado Feder…
##  7        2018 Rj               1 Eleições Gerais…            6 Deputado Feder…
##  8        2018 Rj               1 Eleições Gerais…            6 Deputado Feder…
##  9        2018 Rj               1 Eleições Gerais…            6 Deputado Feder…
## 10        2018 Rj               1 Eleições Gerais…            6 Deputado Feder…
## # … with 51,758 more rows, and 13 more variables: NUMERO_CANDIDATO <int>, CODIGO_MACRO <int>,
## #   NOME_MACRO <chr>, UF <chr>, NOME_UF <chr>, CODIGO_MESO <int>, NOME_MESO <chr>,
## #   CODIGO_MICRO <int>, NOME_MICRO <chr>, COD_MUN_TSE <int>, COD_MUN_IBGE <int>,
## #   NOME_MUNICIPIO <chr>, QTDE_VOTOS <int>
```

---
## mutate_if: alterando os nomes. 

```r
d %>% 
  # dica para se quiser alterar o nome ao mesmo tempo.
  mutate_if(is.character, list(to_title= ~ str_to_title(.x))) 
```

```
## # A tibble: 51,768 x 28
##    ANO_ELEICAO SIGLA_UE NUM_TURNO DESCRICAO_ELEIC… CODIGO_CARGO DESCRICAO_CARGO
##          <int> <chr>        <int> <chr>                   <int> <chr>          
##  1        2018 RJ               1 ELEIÇÕES GERAIS…            6 DEPUTADO FEDER…
##  2        2018 RJ               1 ELEIÇÕES GERAIS…            6 DEPUTADO FEDER…
##  3        2018 RJ               1 ELEIÇÕES GERAIS…            6 DEPUTADO FEDER…
##  4        2018 RJ               1 ELEIÇÕES GERAIS…            6 DEPUTADO FEDER…
##  5        2018 RJ               1 ELEIÇÕES GERAIS…            6 DEPUTADO FEDER…
##  6        2018 RJ               1 ELEIÇÕES GERAIS…            6 DEPUTADO FEDER…
##  7        2018 RJ               1 ELEIÇÕES GERAIS…            6 DEPUTADO FEDER…
##  8        2018 RJ               1 ELEIÇÕES GERAIS…            6 DEPUTADO FEDER…
##  9        2018 RJ               1 ELEIÇÕES GERAIS…            6 DEPUTADO FEDER…
## 10        2018 RJ               1 ELEIÇÕES GERAIS…            6 DEPUTADO FEDER…
## # … with 51,758 more rows, and 22 more variables: NUMERO_CANDIDATO <int>, CODIGO_MACRO <int>,
## #   NOME_MACRO <chr>, UF <chr>, NOME_UF <chr>, CODIGO_MESO <int>, NOME_MESO <chr>,
## #   CODIGO_MICRO <int>, NOME_MICRO <chr>, COD_MUN_TSE <int>, COD_MUN_IBGE <int>,
## #   NOME_MUNICIPIO <chr>, QTDE_VOTOS <int>, SIGLA_UE_to_title <chr>,
## #   DESCRICAO_ELEICAO_to_title <chr>, DESCRICAO_CARGO_to_title <chr>,
## #   NOME_MACRO_to_title <chr>, UF_to_title <chr>, NOME_UF_to_title <chr>,
## #   NOME_MESO_to_title <chr>, NOME_MICRO_to_title <chr>, NOME_MUNICIPIO_to_title <chr>
```
…
---

## mutate_at

```r
# Converter Descricao para Minusculo
cand %>%
 mutate_at(vars(contains("DESCRICAO")), 
                 str_to_lower) %>%
  select(contains("DESCRICAO"))
```

```
## # A tibble: 8,588 x 8
##    DESCRICAO_ELEIC… DESCRICAO_UE DESCRICAO_CARGO DESCRICAO_OCUPA… DESCRICAO_SEXO
##    <chr>            <chr>        <chr>           <chr>            <chr>         
##  1 eleições gerais… acre         deputado feder… vereador         masculino     
##  2 eleições gerais… acre         deputado feder… empresário       masculino     
##  3 eleições gerais… acre         deputado feder… empresário       masculino     
##  4 eleições gerais… acre         deputado feder… empresário       masculino     
##  5 eleições gerais… acre         deputado feder… outros           masculino     
##  6 eleições gerais… acre         deputado feder… outros           feminino      
##  7 eleições gerais… acre         deputado feder… servidor públic… masculino     
##  8 eleições gerais… acre         deputado feder… professor de en… masculino     
##  9 eleições gerais… acre         deputado feder… servidor públic… masculino     
## 10 eleições gerais… acre         deputado feder… policial militar masculino     
## # … with 8,578 more rows, and 3 more variables: DESCRICAO_GRAU_INSTRUCAO <chr>,
## #   DESCRICAO_ESTADO_CIVIL <chr>, DESCRICAO_NACIONALIDADE <chr>
```

---

## Rename_at

```r
cand %>%
  rename_at(vars(ends_with("CARGO")), 
            ~ str_replace(.x, "CARGO", "Cargo")) %>%
  select(contains("Cargo"))
```

```
## # A tibble: 8,588 x 2
##    CODIGO_Cargo DESCRICAO_Cargo 
##           <int> <chr>           
##  1            6 DEPUTADO FEDERAL
##  2            6 DEPUTADO FEDERAL
##  3            6 DEPUTADO FEDERAL
##  4            6 DEPUTADO FEDERAL
##  5            6 DEPUTADO FEDERAL
##  6            6 DEPUTADO FEDERAL
##  7            6 DEPUTADO FEDERAL
##  8            6 DEPUTADO FEDERAL
##  9            6 DEPUTADO FEDERAL
## 10            6 DEPUTADO FEDERAL
## # … with 8,578 more rows
```
…
---
## Exemplo 2

.pull-left[

```r
cand %>%
  rename_at(vars(ends_with("CARGO")), 
            ~ str_replace(.x, "CARGO", "Cargo")) %>%
  select(contains("Cargo"))
```

```
## # A tibble: 8,588 x 2
##    CODIGO_Cargo DESCRICAO_Cargo 
##           <int> <chr>           
##  1            6 DEPUTADO FEDERAL
##  2            6 DEPUTADO FEDERAL
##  3            6 DEPUTADO FEDERAL
##  4            6 DEPUTADO FEDERAL
##  5            6 DEPUTADO FEDERAL
##  6            6 DEPUTADO FEDERAL
##  7            6 DEPUTADO FEDERAL
##  8            6 DEPUTADO FEDERAL
##  9            6 DEPUTADO FEDERAL
## 10            6 DEPUTADO FEDERAL
## # … with 8,578 more rows
```
]

.pull-right[

```r
cand %>%
  rename_at(vars(ends_with("CARGO")), 
            function(x) str_replace(x, "CARGO", "Cargo")) %>%
  select(contains("Cargo"))
```

```
## # A tibble: 8,588 x 2
##    CODIGO_Cargo DESCRICAO_Cargo 
##           <int> <chr>           
##  1            6 DEPUTADO FEDERAL
##  2            6 DEPUTADO FEDERAL
##  3            6 DEPUTADO FEDERAL
##  4            6 DEPUTADO FEDERAL
##  5            6 DEPUTADO FEDERAL
##  6            6 DEPUTADO FEDERAL
##  7            6 DEPUTADO FEDERAL
##  8            6 DEPUTADO FEDERAL
##  9            6 DEPUTADO FEDERAL
## 10            6 DEPUTADO FEDERAL
## # … with 8,578 more rows
```
…
### Altera todas as variáveis de uma vez. 

      function_all(var=all_by_default, função)

---

### Mutate_all

```r
cand %>%
  mutate_all(str_trim)   # retira espaços extras. 
```

```
## # A tibble: 8,588 x 42
##    DATA_GERACAO HORA_GERACAO ANO_ELEICAO NUM_TURNO DESCRICAO_ELEIC… SIGLA_UF SIGLA_UE
##    <chr>        <chr>        <chr>       <chr>     <chr>            <chr>    <chr>   
##  1 30/10/2018   10:39:17     2018        1         Eleições Gerais… AC       AC      
##  2 30/10/2018   10:39:17     2018        1         Eleições Gerais… AC       AC      
##  3 30/10/2018   10:39:17     2018        1         Eleições Gerais… AC       AC      
##  4 30/10/2018   10:39:17     2018        1         Eleições Gerais… AC       AC      
##  5 30/10/2018   10:39:17     2018        1         Eleições Gerais… AC       AC      
##  6 30/10/2018   10:39:17     2018        1         Eleições Gerais… AC       AC      
##  7 30/10/2018   10:39:17     2018        1         Eleições Gerais… AC       AC      
##  8 30/10/2018   10:39:17     2018        1         Eleições Gerais… AC       AC      
##  9 30/10/2018   10:39:17     2018        1         Eleições Gerais… AC       AC      
## 10 30/10/2018   10:39:17     2018        1         Eleições Gerais… AC       AC      
## # … with 8,578 more rows, and 35 more variables: DESCRICAO_UE <chr>, CODIGO_CARGO <chr>,
## #   DESCRICAO_CARGO <chr>, NOME_CANDIDATO <chr>, NUMERO_CANDIDATO <chr>, CPF_CANDIDATO <chr>,
## #   NOME_URNA_CANDIDATO <chr>, COD_SITUACAO_CANDIDATURA <chr>,
## #   DES_SITUACAO_CANDIDATURA <chr>, NUMERO_PARTIDO <chr>, SIGLA_PARTIDO <chr>,
## #   NOME_PARTIDO <chr>, CODIGO_LEGENDA <chr>, SIGLA_LEGENDA <chr>, COMPOSICAO_LEGENDA <chr>,
## #   NOME_COLIGACAO <chr>, CODIGO_OCUPACAO <chr>, DESCRICAO_OCUPACAO <chr>,
## #   DATA_NASCIMENTO <chr>, NUM_TITULO_ELEITORAL_CANDIDATO <chr>, IDADE_DATA_ELEICAO <chr>,
## #   CODIGO_SEXO <chr>, DESCRICAO_SEXO <chr>, COD_GRAU_INSTRUCAO <chr>,
## #   DESCRICAO_GRAU_INSTRUCAO <chr>, CODIGO_ESTADO_CIVIL <chr>, DESCRICAO_ESTADO_CIVIL <chr>,
…
```
##        mpg    cyl     disp       hp     drat      wt     qsec     vs      am   gear   carb
## 1 20.09062 6.1875 230.7219 146.6875 3.596563 3.21725 17.84875 0.4375 0.40625 3.6875 2.8125
```

---
## Rename_all: usando nossa `~`

```r
cand %>%
  rename_all(~ str_replace_all(.x, "_", "x"))
```

```
## # A tibble: 8,588 x 42
##    DATAxGERACAO HORAxGERACAO ANOxELEICAO NUMxTURNO DESCRICAOxELEIC… SIGLAxUF SIGLAxUE
##    <chr>        <chr>              <int>     <int> <chr>            <chr>    <chr>   
##  1 30/10/2018   10:39:17            2018         1 Eleições Gerais… AC       AC      
##  2 30/10/2018   10:39:17            2018         1 Eleições Gerais… AC       AC      
##  3 30/10/2018   10:39:17            2018         1 Eleições Gerais… AC       AC      
##  4 30/10/2018   10:39:17            2018         1 Eleições Gerais… AC       AC      
##  5 30/10/2018   10:39:17            2018         1 Eleições Gerais… AC       AC      
##  6 30/10/2018   10:39:17            2018         1 Eleições Gerais… AC       AC      
##  7 30/10/2018   10:39:17            2018         1 Eleições Gerais… AC       AC      
##  8 30/10/2018   10:39:17            2018         1 Eleições Gerais… AC       AC      
##  9 30/10/2018   10:39:17            2018         1 Eleições Gerais… AC       AC      
## 10 30/10/2018   10:39:17            2018         1 Eleições Gerais… AC       AC      
## # … with 8,578 more rows, and 35 more variables: DESCRICAOxUE <chr>, CODIGOxCARGO <int>,
## #   DESCRICAOxCARGO <chr>, NOMExCANDIDATO <chr>, NUMEROxCANDIDATO <int>, CPFxCANDIDATO <chr>,
## #   NOMExURNAxCANDIDATO <chr>, CODxSITUACAOxCANDIDATURA <int>,
## #   DESxSITUACAOxCANDIDATURA <chr>, NUMEROxPARTIDO <int>, SIGLAxPARTIDO <chr>,
## #   NOMExPARTIDO <chr>, CODIGOxLEGENDA <int64>, SIGLAxLEGENDA <chr>,
## #   COMPOSICAOxLEGENDA <chr>, NOMExCOLIGACAO <chr>, CODIGOxOCUPACAO <int>,
## #   DESCRICAOxOCUPACAO <chr>, DATAxNASCIMENTO <chr>, NUMxTITULOxELEITORALxCANDIDATO <chr>,
## #   IDADExDATAxELEICAO <int>, CODIGOxSEXO <int>, DESCRICAOxSEXO <chr>,
## #   CODxGRAUxINSTRUCAO <int>, DESCRICAOxGRAUxINSTRUCAO <chr>, CODIGOxESTADOxCIVIL <int>,
…
```
## [1] "tiago#umd"   "ventura#fgv"
```

---
## Mais importante: Fácil de implementar com mutate. 

```r
cand %>%
  select(NOME_URNA_CANDIDATO) %>%
  mutate(nome_minusculo=str_to_lower(NOME_URNA_CANDIDATO))
```

```
## # A tibble: 8,588 x 2
##    NOME_URNA_CANDIDATO    nome_minusculo        
##    <chr>                  <chr>                 
##  1 "PASTOR MANUEL MARCOS" "pastor manuel marcos"
##  2 "JUNIOR PARIS DAKAR"   "junior paris dakar"  
##  3 "RUDILEI ESTRELA"      "rudilei estrela"     
##  4 "NELSON SALES"         "nelson sales"        
##  5 "EURICO CORDEIRO "     "eurico cordeiro "    
##  6 "DJÊ CAVALCANTE"       "djê cavalcante"      
##  7 "PAULO SORIANO"        "paulo soriano"       
##  8 "JESUS SÉRGIO"         "jesus sérgio"        
##  9 "CHICO DOIDO DA SAÚDE" "chico doido da saúde"
## 10 "CABRAL"               "cabral"              
## # … with 8,578 more rows
```
…
