Introdução a Métodos Computacionais para Ciência Sociais
…
---

## Acessando dados em um Data Frame

**Pela Ordem da Coluna**

```r
bakers[,1] # primeira coluna
```

```
## # A tibble: 120 x 1
##    series
##    <fct> 
##  1 1     
##  2 1     
##  3 1     
##  4 1     
##  5 1     
##  6 1     
##  7 1     
##  8 1     
##  9 1     
## 10 1     
## # … with 110 more rows
```
…
```r
# Ou

bakers[,"age"]
```

```
## # A tibble: 120 x 1
##      age
##    <dbl>
##  1    30
##  2    31
##  3    24
##  4    45
##  5    25
##  6    51
##  7    44
##  8    48
##  9    37
## 10    31
## # … with 110 more rows
```
…
