Introdução a Métodos Computacionais para Ciência Sociais
…
```
## [1] "data.frame"
```

```r
# Converte para tibbles
mtcars_tib <- as_tibble(mtcars)
mtcars_tib
```

```
## # A tibble: 32 x 11
##      mpg   cyl  disp    hp  drat    wt  qsec    vs    am  gear  carb
##    <dbl> <dbl> <dbl> <dbl> <dbl> <dbl> <dbl> <dbl> <dbl> <dbl> <dbl>
##  1  21       6  160    110  3.9   2.62  16.5     0     1     4     4
##  2  21       6  160    110  3.9   2.88  17.0     0     1     4     4
##  3  22.8     4  108     93  3.85  2.32  18.6     1     1     4     1
##  4  21.4     6  258    110  3.08  3.22  19.4     1     0     3     1
##  5  18.7     8  360    175  3.15  3.44  17.0     0     0     3     2
##  6  18.1     6  225    105  2.76  3.46  20.2     1     0     3     1
##  7  14.3     8  360    245  3.21  3.57  15.8     0     0     3     4
##  8  24.4     4  147.    62  3.69  3.19  20       1     0     4     2
##  9  22.8     4  141.    95  3.92  3.15  22.9     1     0     4     2
## 10  19.2     6  168.   123  3.92  3.44  18.3     1     0     4     4
## # … with 22 more rows
```
…
# Select: Seleciona Colunas. 

<img src="figs/select.png" width="80%" />

---
## Uso Básico

```r
pres_rio %>% # Dados
  select(ANO_ELEICAO, SIGLA_UE, NOME_MUNICIPIO, COD_MUN_IBGE) # colunas
```

```
## # A tibble: 1,374 x 4
##    ANO_ELEICAO SIGLA_UE NOME_MUNICIPIO COD_MUN_IBGE
##          <int> <chr>    <chr>                 <int>
##  1        2018 BR       Angra dos Reis      3300100
##  2        2018 BR       Angra dos Reis      3300100
##  3        2018 BR       Angra dos Reis      3300100
##  4        2018 BR       Angra dos Reis      3300100
##  5        2018 BR       Angra dos Reis      3300100
##  6        2018 BR       Angra dos Reis      3300100
##  7        2018 BR       Angra dos Reis      3300100
##  8        2018 BR       Angra dos Reis      3300100
##  9        2018 BR       Angra dos Reis      3300100
## 10        2018 BR       Angra dos Reis      3300100
## # … with 1,364 more rows
```

---

## Reordenando Colunas

```r
pres_rio %>% # Dados
  # seleciona colunas
  select(QTDE_VOTOS, ANO_ELEICAO, SIGLA_UE, 
         NOME_MUNICIPIO, COD_MUN_IBGE) # colunas
```

```
## # A tibble: 1,374 x 5
##    QTDE_VOTOS ANO_ELEICAO SIGLA_UE NOME_MUNICIPIO COD_MUN_IBGE
##         <int>       <int> <chr>    <chr>                 <int>
##  1       8696        2018 BR       Angra dos Reis      3300100
##  2      13204        2018 BR       Angra dos Reis      3300100
##  3        565        2018 BR       Angra dos Reis      3300100
##  4         34        2018 BR       Angra dos Reis      3300100
##  5      59499        2018 BR       Angra dos Reis      3300100
##  6        662        2018 BR       Angra dos Reis      3300100
##  7        349        2018 BR       Angra dos Reis      3300100
##  8         32        2018 BR       Angra dos Reis      3300100
##  9        998        2018 BR       Angra dos Reis      3300100
## 10       1909        2018 BR       Angra dos Reis      3300100
## # … with 1,364 more rows
```
…
## Renomeando Colunas

```r
pres_rio %>% 
  # seleciona colunas com novos nomes. 
  select(votos=QTDE_VOTOS, 
         ano=ANO_ELEICAO, 
         pais=SIGLA_UE, 
         mun=NOME_MUNICIPIO, 
         cod=COD_MUN_IBGE) # colunas
```

```
## # A tibble: 1,374 x 5
##    votos   ano pais  mun                cod
##    <int> <int> <chr> <chr>            <int>
##  1  8696  2018 BR    Angra dos Reis 3300100
##  2 13204  2018 BR    Angra dos Reis 3300100
##  3   565  2018 BR    Angra dos Reis 3300100
##  4    34  2018 BR    Angra dos Reis 3300100
##  5 59499  2018 BR    Angra dos Reis 3300100
##  6   662  2018 BR    Angra dos Reis 3300100
##  7   349  2018 BR    Angra dos Reis 3300100
##  8    32  2018 BR    Angra dos Reis 3300100
##  9   998  2018 BR    Angra dos Reis 3300100
## 10  1909  2018 BR    Angra dos Reis 3300100
## # … with 1,364 more rows
```
…
- `everything()` - Extrai todas as colunas restantes.

---

## Exemplos

```r
pres_rio %>%
  # seleciona colunas onde NOME aparece
  select(contains("NOME"))
```

```
## # A tibble: 1,374 x 5
##    NOME_MACRO NOME_UF        NOME_MESO      NOME_MICRO          NOME_MUNICIPIO
##    <chr>      <chr>          <chr>          <chr>               <chr>         
##  1 Sudeste    Rio de Janeiro Sul Fluminense Baía da Ilha Grande Angra dos Reis
##  2 Sudeste    Rio de Janeiro Sul Fluminense Baía da Ilha Grande Angra dos Reis
##  3 Sudeste    Rio de Janeiro Sul Fluminense Baía da Ilha Grande Angra dos Reis
##  4 Sudeste    Rio de Janeiro Sul Fluminense Baía da Ilha Grande Angra dos Reis
##  5 Sudeste    Rio de Janeiro Sul Fluminense Baía da Ilha Grande Angra dos Reis
##  6 Sudeste    Rio de Janeiro Sul Fluminense Baía da Ilha Grande Angra dos Reis
##  7 Sudeste    Rio de Janeiro Sul Fluminense Baía da Ilha Grande Angra dos Reis
##  8 Sudeste    Rio de Janeiro Sul Fluminense Baía da Ilha Grande Angra dos Reis
##  9 Sudeste    Rio de Janeiro Sul Fluminense Baía da Ilha Grande Angra dos Reis
## 10 Sudeste    Rio de Janeiro Sul Fluminense Baía da Ilha Grande Angra dos Reis
## # … with 1,364 more rows
```

```r
pres_rio %>%
  # seleciona colunas que terminam com UF e 
  # todas as outras colunas restantes
  select(ends_with("UF"), everything())
```

```
## # A tibble: 1,374 x 19
##    UF    NOME_UF ANO_ELEICAO SIGLA_UE NUM_TURNO DESCRICAO_ELEIC… CODIGO_CARGO DESCRICAO_CARGO NUMERO_CANDIDATO
##    <chr> <chr>         <int> <chr>        <int> <chr>                   <int> <chr>                      <int>
##  1 RJ    Rio de…        2018 BR               1 ELEIÇÃO GERAL F…            1 PRESIDENTE                    12
##  2 RJ    Rio de…        2018 BR               1 ELEIÇÃO GERAL F…            1 PRESIDENTE                    13
##  3 RJ    Rio de…        2018 BR               1 ELEIÇÃO GERAL F…            1 PRESIDENTE                    15
##  4 RJ    Rio de…        2018 BR               1 ELEIÇÃO GERAL F…            1 PRESIDENTE                    16
##  5 RJ    Rio de…        2018 BR               1 ELEIÇÃO GERAL F…            1 PRESIDENTE                    17
##  6 RJ    Rio de…        2018 BR               1 ELEIÇÃO GERAL F…            1 PRESIDENTE                    18
##  7 RJ    Rio de…        2018 BR               1 ELEIÇÃO GERAL F…            1 PRESIDENTE                    19
##  8 RJ    Rio de…        2018 BR               1 ELEIÇÃO GERAL F…            1 PRESIDENTE                    27
##  9 RJ    Rio de…        2018 BR               1 ELEIÇÃO GERAL F…            1 PRESIDENTE                    30
## 10 RJ    Rio de…        2018 BR               1 ELEIÇÃO GERAL F…            1 PRESIDENTE                    45
## # … with 1,364 more rows, and 10 more variables: CODIGO_MACRO <int>, NOME_MACRO <chr>, CODIGO_MESO <int>,
## #   NOME_MESO <chr>, CODIGO_MICRO <int>, NOME_MICRO <chr>, COD_MUN_TSE <int>, COD_MUN_IBGE <int>,
## #   NOME_MUNICIPIO <chr>, QTDE_VOTOS <int>
```
…
---

## Filter: Uso Básico

```r
pres_rio %>%
  # filtra casos ondem partido igual a 17.
  filter(NUMERO_CANDIDATO==17) %>%
  # seleciona
  select(DESCRICAO_CARGO, NUMERO_CANDIDATO, QTDE_VOTOS, NOME_MUNICIPIO)
```

```
## # A tibble: 184 x 4
##    DESCRICAO_CARGO NUMERO_CANDIDATO QTDE_VOTOS NOME_MUNICIPIO    
##    <chr>                      <int>      <int> <chr>             
##  1 PRESIDENTE                    17      59499 Angra dos Reis    
##  2 PRESIDENTE                    17       4366 Aperibé           
##  3 PRESIDENTE                    17      44108 Araruama          
##  4 PRESIDENTE                    17       3816 Areal             
##  5 PRESIDENTE                    17      13028 Armação dos Búzios
##  6 PRESIDENTE                    17      13342 Arraial do Cabo   
##  7 PRESIDENTE                    17      27178 Barra do Piraí    
##  8 PRESIDENTE                    17      55972 Barra Mansa       
##  9 PRESIDENTE                    17     138676 Belford Roxo      
## 10 PRESIDENTE                    17       8077 Bom Jardim        
## # … with 174 more rows
```
…
## Arrange: Uso Básico:

```r
pres_rio %>%
  # filtra pelas linhas
  filter(NUMERO_CANDIDATO==13) %>% 
  # seleciona
  select(DESCRICAO_CARGO, NUMERO_CANDIDATO,
         QTDE_VOTOS, NOME_MUNICIPIO) %>%
  # ordena de forma crescente
  arrange(QTDE_VOTOS)
```

```
## # A tibble: 184 x 4
##    DESCRICAO_CARGO NUMERO_CANDIDATO QTDE_VOTOS NOME_MUNICIPIO               
##    <chr>                      <int>      <int> <chr>                        
##  1 PRESIDENTE                    13        830 São José do Vale do Rio Preto
##  2 PRESIDENTE                    13       1111 Areal                        
##  3 PRESIDENTE                    13       1115 Santa Maria Madalena         
##  4 PRESIDENTE                    13       1129 Aperibé                      
##  5 PRESIDENTE                    13       1152 São José de Ubá              
##  6 PRESIDENTE                    13       1224 Macuco                       
##  7 PRESIDENTE                    13       1241 Varre-Sai                    
##  8 PRESIDENTE                    13       1342 Italva                       
##  9 PRESIDENTE                    13       1448 São Sebastião do Alto        
## 10 PRESIDENTE                    13       1455 Duas Barras                  
## # … with 174 more rows
```
…
## Arrange: Decrescente    

```r
pres_rio %>%
  # filtra pelas linhas
  filter(NUMERO_CANDIDATO==13) %>% 
  # seleciona variáveis
  select(DESCRICAO_CARGO, NUMERO_CANDIDATO, 
         QTDE_VOTOS, NOME_MUNICIPIO) %>%
  # ordena em valores descrecentes
  arrange(desc(QTDE_VOTOS))
```

```
## # A tibble: 184 x 4
##    DESCRICAO_CARGO NUMERO_CANDIDATO QTDE_VOTOS NOME_MUNICIPIO       
##    <chr>                      <int>      <int> <chr>                
##  1 PRESIDENTE                    13    1105393 Rio de Janeiro       
##  2 PRESIDENTE                    13     398033 Rio de Janeiro       
##  3 PRESIDENTE                    13     149075 São Gonçalo          
##  4 PRESIDENTE                    13     136240 Duque de Caxias      
##  5 PRESIDENTE                    13     110820 Nova Iguaçu          
##  6 PRESIDENTE                    13     105606 Niterói              
##  7 PRESIDENTE                    13      80858 São Gonçalo          
##  8 PRESIDENTE                    13      79838 Campos dos Goytacazes
##  9 PRESIDENTE                    13      77504 Duque de Caxias      
## 10 PRESIDENTE                    13      70499 São João de Meriti   
## # … with 174 more rows
```
…
---

### Mutate: Uso Básico:

```r
pres_rio %>%
  # cria variável com estado e cidade
  mutate(estado_cidade=paste(NOME_MUNICIPIO, "-", NOME_UF)) %>%
  #seleciona para visualizar
  select(NOME_MUNICIPIO, NOME_UF, estado_cidade)
```

```
## # A tibble: 1,374 x 3
##    NOME_MUNICIPIO NOME_UF        estado_cidade                  
##    <chr>          <chr>          <chr>                          
##  1 Angra dos Reis Rio de Janeiro Angra dos Reis - Rio de Janeiro
##  2 Angra dos Reis Rio de Janeiro Angra dos Reis - Rio de Janeiro
##  3 Angra dos Reis Rio de Janeiro Angra dos Reis - Rio de Janeiro
##  4 Angra dos Reis Rio de Janeiro Angra dos Reis - Rio de Janeiro
##  5 Angra dos Reis Rio de Janeiro Angra dos Reis - Rio de Janeiro
##  6 Angra dos Reis Rio de Janeiro Angra dos Reis - Rio de Janeiro
##  7 Angra dos Reis Rio de Janeiro Angra dos Reis - Rio de Janeiro
##  8 Angra dos Reis Rio de Janeiro Angra dos Reis - Rio de Janeiro
##  9 Angra dos Reis Rio de Janeiro Angra dos Reis - Rio de Janeiro
## 10 Angra dos Reis Rio de Janeiro Angra dos Reis - Rio de Janeiro
## # … with 1,364 more rows
```
…
### Mutate: Condicionais

```r
pres_rio %>%
  # cria variável usando condicionais
  mutate(estado_sigla=ifelse(NOME_UF=="Rio de Janeiro", "RJ", NA), 
  # concatena nova variável com cidade
         estado_cidade=paste(estado_sigla, "-", NOME_MUNICIPIO)) %>%
  #selectiona
  select(NOME_UF, NOME_MUNICIPIO, estado_sigla, everything())
```

```
## # A tibble: 1,374 x 21
##    NOME_UF NOME_MUNICIPIO estado_sigla ANO_ELEICAO SIGLA_UE NUM_TURNO DESCRICAO_ELEIC… CODIGO_CARGO DESCRICAO_CARGO
##    <chr>   <chr>          <chr>              <int> <chr>        <int> <chr>                   <int> <chr>          
##  1 Rio de… Angra dos Reis RJ                  2018 BR               1 ELEIÇÃO GERAL F…            1 PRESIDENTE     
##  2 Rio de… Angra dos Reis RJ                  2018 BR               1 ELEIÇÃO GERAL F…            1 PRESIDENTE     
##  3 Rio de… Angra dos Reis RJ                  2018 BR               1 ELEIÇÃO GERAL F…            1 PRESIDENTE     
##  4 Rio de… Angra dos Reis RJ                  2018 BR               1 ELEIÇÃO GERAL F…            1 PRESIDENTE     
##  5 Rio de… Angra dos Reis RJ                  2018 BR               1 ELEIÇÃO GERAL F…            1 PRESIDENTE     
##  6 Rio de… Angra dos Reis RJ                  2018 BR               1 ELEIÇÃO GERAL F…            1 PRESIDENTE     
##  7 Rio de… Angra dos Reis RJ                  2018 BR               1 ELEIÇÃO GERAL F…            1 PRESIDENTE     
##  8 Rio de… Angra dos Reis RJ                  2018 BR               1 ELEIÇÃO GERAL F…            1 PRESIDENTE     
##  9 Rio de… Angra dos Reis RJ                  2018 BR               1 ELEIÇÃO GERAL F…            1 PRESIDENTE     
## 10 Rio de… Angra dos Reis RJ                  2018 BR               1 ELEIÇÃO GERAL F…            1 PRESIDENTE     
## # … with 1,364 more rows, and 12 more variables: NUMERO_CANDIDATO <int>, CODIGO_MACRO <int>, NOME_MACRO <chr>,
## #   UF <chr>, CODIGO_MESO <int>, NOME_MESO <chr>, CODIGO_MICRO <int>, NOME_MICRO <chr>, COD_MUN_TSE <int>,
## #   COD_MUN_IBGE <int>, QTDE_VOTOS <int>, estado_cidade <chr>
```

---

### Mutate: Operações Matemáticas. 

```r
pres_rio %>%
  # log dos votos
  mutate(log_votos=log(QTDE_VOTOS)) %>%
  # seleciona
  select(QTDE_VOTOS, log_votos)
```

```
## # A tibble: 1,374 x 2
##    QTDE_VOTOS log_votos
##         <int>     <dbl>
##  1       8696      9.07
##  2      13204      9.49
##  3        565      6.34
##  4         34      3.53
##  5      59499     11.0 
##  6        662      6.50
##  7        349      5.86
##  8         32      3.47
##  9        998      6.91
## 10       1909      7.55
## # … with 1,364 more rows
```
…
---

### Group_by

O primeiro passo é agrupar de acordo com a variável de nosso interesse. Não altera o banco em nada, visível. 

```r
pres_rio %>%
  # agrupando por candidato presidencial: 
  group_by(NUMERO_CANDIDATO) 
```

```
## # A tibble: 1,374 x 19
## # Groups:   NUMERO_CANDIDATO [13]
##    ANO_ELEICAO SIGLA_UE NUM_TURNO DESCRICAO_ELEIC… CODIGO_CARGO DESCRICAO_CARGO NUMERO_CANDIDATO CODIGO_MACRO
##          <int> <chr>        <int> <chr>                   <int> <chr>                      <int>        <int>
##  1        2018 BR               1 ELEIÇÃO GERAL F…            1 PRESIDENTE                    12            3
##  2        2018 BR               1 ELEIÇÃO GERAL F…            1 PRESIDENTE                    13            3
##  3        2018 BR               1 ELEIÇÃO GERAL F…            1 PRESIDENTE                    15            3
##  4        2018 BR               1 ELEIÇÃO GERAL F…            1 PRESIDENTE                    16            3
##  5        2018 BR               1 ELEIÇÃO GERAL F…            1 PRESIDENTE                    17            3
##  6        2018 BR               1 ELEIÇÃO GERAL F…            1 PRESIDENTE                    18            3
##  7        2018 BR               1 ELEIÇÃO GERAL F…            1 PRESIDENTE                    19            3
##  8        2018 BR               1 ELEIÇÃO GERAL F…            1 PRESIDENTE                    27            3
##  9        2018 BR               1 ELEIÇÃO GERAL F…            1 PRESIDENTE                    30            3
## 10        2018 BR               1 ELEIÇÃO GERAL F…            1 PRESIDENTE                    45            3
## # … with 1,364 more rows, and 11 more variables: NOME_MACRO <chr>, UF <chr>, NOME_UF <chr>, CODIGO_MESO <int>,
## #   NOME_MESO <chr>, CODIGO_MICRO <int>, NOME_MICRO <chr>, COD_MUN_TSE <int>, COD_MUN_IBGE <int>,
## #   NOME_MUNICIPIO <chr>, QTDE_VOTOS <int>
```
…
**Total de Votos por Município**

```r
pres_rio %>%
  # Somente primeiro turno 
  filter(NUM_TURNO==1) %>%
  # agrupando por candidato presidencial
  group_by(NOME_MUNICIPIO) %>%
  # Somando os votos em todo o estado.
  summarise(voto_mun=sum(QTDE_VOTOS)) 
```

```
## # A tibble: 92 x 2
##    NOME_MUNICIPIO     voto_mun
##  * <chr>                 <int>
##  1 Angra dos Reis        88316
##  2 Aperibé                6680
##  3 Araruama              64481
##  4 Areal                  6921
##  5 Armação dos Búzios    19979
##  6 Arraial do Cabo       20133
##  7 Barra do Piraí        48942
##  8 Barra Mansa           96980
##  9 Belford Roxo         226785
## 10 Bom Jardim            14090
## # … with 82 more rows
```
…
```r
pres_rio %>%
  # Somente primeiro turno 
  filter(NUM_TURNO==1) %>%
  # agrupando por candidato presidencial
  group_by(NUMERO_CANDIDATO, NOME_MESO) %>%
  # soma de votos por município
  summarise(voto_media=mean(QTDE_VOTOS), 
            voto_min=min(QTDE_VOTOS), 
            voto_max=max(QTDE_VOTOS))
```

```
## # A tibble: 78 x 5
## # Groups:   NUMERO_CANDIDATO [13]
##    NUMERO_CANDIDATO NOME_MESO                       voto_media voto_min voto_max
##               <int> <chr>                                <dbl>    <int>    <int>
##  1               12 Baixadas                             4769.     1157    13478
##  2               12 Centro Fluminense                    2558       403    16254
##  3               12 Metropolitana do Rio de Janeiro     35187.      702   645674
##  4               12 Noroeste Fluminense                  1393.      296     4684
##  5               12 Norte Fluminense                     6909.      798    33042
##  6               12 Sul Fluminense                       5412.      812    23860
##  7               13 Baixadas                             4409.     1574    10310
##  8               13 Centro Fluminense                    2954.     1111    10664
##  9               13 Metropolitana do Rio de Janeiro     31261.      830   398033
## 10               13 Noroeste Fluminense                  2789.     1129     8209
## # … with 68 more rows
```
…
