…
Para nosso exemplo diretamente em R, vamos acessar dados da API do Twitter utilizando o pacote rtweet.

library(rtweet)
library(tidyverse)
bolsonaro_tweets<-search_tweets("bolsonaro", n=50, include_rts = TRUE)

# Selecionar somente o texto
bolsonaro_tweets <- bolsonaro_tweets %>%
                        select(user_id, screen_name, text)
                            
# Veja os dados
bolsonaro_tweets

## # A tibble: 50 x 3
##    user_id         screen_name   text                                           
##    <chr>           <chr>         <chr>                                          
##  1 266277981       bagginsess    "As referências do Heinze\n- Dr. Zelenko: Bani…
##  2 169710067       marceloprate… "As referências do Heinze\n- Dr. Zelenko: Bani…
##  3 29762744        renatamagalh… "\"Didier Raoult, um dos maiores virologistas …
##  4 4085994747      EderMoraesBr  "BOMBA!!! 💣💣💣 Ernesto coloca Bolsonaro na cena…
##  5 273115489       ricardoptrw   "Senador Girão hoje na CPI denunciou ‘guerra o…
##  6 12930580242743… Hellcifence   "@randolfeap É a CPI da Profecia.\nPara adivin…
##  7 62066601        takebrasilia  "Ernesto Araújo acaba de dizer que Jair Bolson…
##  8 10398472099723… VanioJunior5  "Estamos assistindo um senador da República mo…
##  9 10374057538318… cecibarral1   "Não dá pra ter um minuto de felicidade nesse …
## 10 92979491        eipaulorossi  "Em CPI, Araújo deverá dizer o que fazia no It…
## # … with 40 more rows
…
Os dois argumentos básicos para unnest_tokens usados aqui são nomes de colunas. Primeiro temos o nome da coluna de saída (o nome da nova coluna) que será criado, e, em seguida, a coluna de entrada de onde vem o texto (speech, neste caso).

Note: pontuações são removidas e os textos são convertidos para letra minúscula.

Outras formas de textos tidy.

Sentenças

discursos %>%
 unnest_tokens(words, speech, token="sentences") #(output, input)

## # A tibble: 312,821 x 4
##    nome          partido uf    words                                            
##    <chr>         <chr>   <chr> <chr>                                            
##  1 ABEL MESQUIT… PDT     RR    o sr.                                            
##  2 ABEL MESQUIT… PDT     RR    abel mesquita jr.                                
##  3 ABEL MESQUIT… PDT     RR    (pdt-rr.                                         
##  4 ABEL MESQUIT… PDT     RR    sem revisão do orador.) - sr.                    
##  5 ABEL MESQUIT… PDT     RR    presidente, eu queria dar como lido este meu pro…
##  6 ABEL MESQUIT… PDT     RR    peço a v.exa. que receba como lido o meu pronunc…
##  7 ABEL MESQUIT… PDT     RR    muito obrigado.                                  
##  8 ABEL MESQUIT… PDT     RR    pronunciamento encaminhado pelo orador  sr.      
##  9 ABEL MESQUIT… PDT     RR    presidente, sras. e srs.                         
## 10 ABEL MESQUIT… PDT     RR    deputados, esta semana nós demos um importante p…
## # … with 312,811 more rows

n-gram

discursos %>%
 unnest_tokens(words, speech, token="ngrams", n=2) #(output, input)

## # A tibble: 5,859,418 x 4
##    nome              partido uf    words        
##    <chr>             <chr>   <chr> <chr>        
##  1 ABEL MESQUITA JR. PDT     RR    o sr         
##  2 ABEL MESQUITA JR. PDT     RR    sr abel      
##  3 ABEL MESQUITA JR. PDT     RR    abel mesquita
##  4 ABEL MESQUITA JR. PDT     RR    mesquita jr  
##  5 ABEL MESQUITA JR. PDT     RR    jr pdt       
##  6 ABEL MESQUITA JR. PDT     RR    pdt rr       
##  7 ABEL MESQUITA JR. PDT     RR    rr sem       
##  8 ABEL MESQUITA JR. PDT     RR    sem revisão  
##  9 ABEL MESQUITA JR. PDT     RR    revisão do   
## 10 ABEL MESQUITA JR. PDT     RR    do orador    
## # … with 5,859,408 more rows
…
Remover Acentos, espacos e outros

tidy_discursos <- tidy_discursos %>%
                  mutate(words=str_trim(words), 
                         words=str_squish(words), 
                         words=stringi::stri_trans_general(words, "Latin-ASCII"))%>%
                  filter(words!="")

Palavras mais comuns

tidy_discursos %>%
  count(words, sort = TRUE) 

## # A tibble: 76,846 x 2
##    words        n
##    <chr>    <int>
##  1 estado   14790
##  2 anos     10169
##  3 grande    9753
##  4 porque    8823
##  5 ainda     7721
##  6 quero     6958
##  7 povo      6877
##  8 fazer     6772
##  9 projeto   6600
## 10 politica  6537
## # … with 76,836 more rows
…
# -1 negative +1 positive

tidy_discursos <- left_join(tidy_discursos, sent_pt, by=c("words"="term"))

# clean words with no sentiment
tidy_discursos_sent <- tidy_discursos %>%
                        mutate(polarity=ifelse(is.na(polarity), 0, polarity)) %>%
                        filter(polarity!=7)
          
tidy_discursos_sent

## # A tibble: 2,865,805 x 13
##    nome   partido uf    id_discursos words total_palavras n_partidos n_dep  n_uf
##    <chr>  <chr>   <chr>        <int> <chr>          <int>      <int> <int> <int>
##  1 SIMÃO… PP      RJ               1 sess…            301        493    43   836
##  2 SIMÃO… PP      RJ               1 pp               301        493    43   836
##  3 SIMÃO… PP      RJ               1 gost…            301        493    43   836
##  4 SIMÃO… PP      RJ               1 regi…            301        493    43   836
##  5 SIMÃO… PP      RJ               1 torc…            301        493    43   836
##  6 SIMÃO… PP      RJ               1 prof…            301        493    43   836
##  7 SIMÃO… PP      RJ               1 educ…            301        493    43   836
##  8 SIMÃO… PP      RJ               1 rio              301        493    43   836
##  9 SIMÃO… PP      RJ               1 jane…            301        493    43   836
## 10 SIMÃO… PP      RJ               1 greve            301        493    43   836
## # … with 2,865,795 more rows, and 4 more variables: grammar_category <chr>,
## #   polarity <dbl>, polarity_target <chr>, polarity_classification <chr>
…
