…
Acessando dados em um Data Frame

Pela Ordem da Coluna

bakers[,1] # primeira coluna

## # A tibble: 120 x 1
##    series
##    <fct> 
##  1 1     
##  2 1     
##  3 1     
##  4 1     
##  5 1     
##  6 1     
##  7 1     
##  8 1     
##  9 1     
## 10 1     
## # … with 110 more rows
Pela Nome da Coluna

bakers$age

##   [1] 30 31 24 45 25 51 44 48 37 31 31 31 40 63 19 41 31 45 25 31 40 43 63 27 45
##  [26] 21 22 27 36 43 38 28 26 50 25 31 66 51 31 37 51 30 38 37 54 20 30 35 31 69
##  [51] 39 31 32 41 42 17 60 66 38 37 53 19 41 66 37 30 49 49 35 29 32 25 23 31 61
##  [76] 37 67 46 20 28 30 26 66 50 71 46 21 29 19 52 33 42 34 29 46 30 33 36 33 47
## [101] 60 27 30 26 30 29 56 28 24 32 36 40 20 20 26 35 56 34 28 28

# Ou

bakers[,"age"]

## # A tibble: 120 x 1
##      age
##    <dbl>
##  1    30
##  2    31
##  3    24
##  4    45
##  5    25
##  6    51
##  7    44
##  8    48
##  9    37
## 10    31
## # … with 110 more rows
…
